[
      {"id" : 1, "name" : "Rohan", "age" : 26},
      {"id" : 2, "name" : "Amar", "age" : 25},
      {"id" : 3, "name" : "Siva", "age" : 27},
      {"id" : 4, "name" : "Pradeep", "age" : 56},
      {"id" : 5, "name" : "Lubin", "age" : 36},
      {"id" : 6, "name" : "Shankar", "age" : 26}
]